1 10 20
100 200 125
201 210 89
900 1000 174
1 1 1
10 1 20
660 2 145
476062 714985 509
890560 850838 445
623198 207409 470
930377 267493 525
837771 246540 509
407292 533048 470
141359 671479 509
581630 847625 525
431896 965073 525
6582 716431 509
951428 788606 525
199359 331569 443
40 376631 443
331426 298639 384
77356 909835 525
344153 52094 443
471506 567301 470
290895 272069 389
87889 553563 470
21309 905496 525
29620 875025 525
421733 750120 509
772460 599797 509
661129 44851 509
639483 96460 509
625807 966331 525
690619 366550 509
925939 372622 525
501305 974865 525
73343 200578 383
628750 676638 442
762474 798143 468
378902 613075 470
98753 693765 509
737607 404674 509
788202 713500 468
472898 657665 509
686841 739681 504
604066 341045 470
789462 534867 509
978988 942697 458
458398 489825 444
530648 928999 525
315165 589915 470
158878 598838 470
200135 64609 383
157481 220050 386
833381 476261 509
104751 663795 509
747442 567020 509
178536 772635 509
289738 578739 470
441933 948656 525
897165 968905 507
982784 235802 525
286842 312689 389
923643 157861 525
268838 609446 470
479890 17702 449
414273 195815 449
228129 462250 449
184072 156163 370
861905 10299 525
115303 507507 449
50150 829260 509
940354 270666 525
952872 122591 525
516989 944352 525
914008 108889 525
809561 439617 509
539420 315662 470
26546 307221 443
818622 406504 509
694800 425489 509
287707 833650 509
892167 412549 525
54779 38492 340
480554 544416 470
594206 118572 470
252551 953962 525
929735 656557 525
697295 714108 504
563089 29257 470
639754 410723 509
508271 923383 525
15111 410488 449
603613 490999 470
249448 162570 443
394619 597839 470
379158 896349 525
856094 677136 525
471376 890469 525
447098 458745 387
986963 792608 525
880407 839124 432
854253 60574 525
321361 389093 441
680216 387572 509
337060 555227 470
555608 519650 452
