...............
----------------------------------------------------------------------
Ran 15 tests in 0.002s

OK
Name             Stmts   Miss Branch BrPart  Cover   Missing
------------------------------------------------------------
Collatz.py          73      0     36      0   100%
TestCollatz.py      59      0      0      0   100%
------------------------------------------------------------
TOTAL              132      0     36      0   100%
