113 259 128
94 100 119
20 22 16
93 100 119
100 105 88
243 456 144
19 680 145
234 567 144
251 407 144
89 100 119
1 10 20
201 382 144
84 100 119
83 100 119
4 4 3
95 100 119
276 405 144
91 100 119
843 955 179
234 3245 217
12 87 116
20 24 16
80 100 119
131 705 171
154 568 144
430 824 171
234 432 144
85 100 119
474 628 142
152 499 144
6 7 17
96 100 119
51 100 119
82 100 119
1 7 17
331 700 145
48 774 171
11 99 119
319 824 171
990 1000 112
559 943 179
2 3 8
92 100 119
348 784 171
34 97 119
86 100 119
50 100 119
377 712 171
240 288 123
124 288 128
497 778 171
441 575 142
521 715 171
334 809 171
81 100 119
32 32 6
400 697 145
8 8 4
42 100 119
502 780 171
455 693 145
123 124 109
62 314 131
338 996 179
301 708 171
426 757 171
357 380 108
12 14 18
186 526 144
337 686 145
16 16 5
353 541 142
1213 1345 177
32 99 119
88 100 119
99 100 26
97 100 119
133 610 144
1 1 1
23 56 113
175 941 179
87 100 119
939 949 130
10 11 15
221 401 144
143 842 171
776 920 179
100 200 125
60 547 144
250 473 144
9 10 20
930 973 174
468 525 142
201 210 89
123 456 144
90 100 119
2 2 2
904 988 174
98 100 26
827 962 179
4 5 6
